Analyses for the paper: Measuring emotions during learning
…
## plot densities and CIs of regression coefficient
m1_bmeanxsd_ggs <- ggs(m1_bmeanxsd) # transforms the brms output into a longformat tibble (used to make different types of plots)
m1_bmeanxsd_ggs

## # A tibble: 3,456,000 x 4
##    Iteration Chain Parameter       value
##        <int> <int> <fct>           <dbl>
##  1         1     1 b_Intercept[1] 0.815 
##  2         2     1 b_Intercept[1] 0.815 
##  3         3     1 b_Intercept[1] 0.815 
##  4         4     1 b_Intercept[1] 0.815 
##  5         5     1 b_Intercept[1] 0.0113
##  6         6     1 b_Intercept[1] 0.544 
##  7         7     1 b_Intercept[1] 0.541 
##  8         8     1 b_Intercept[1] 0.189 
##  9         9     1 b_Intercept[1] 0.137 
## 10        10     1 b_Intercept[1] 0.317 
## # ... with 3,455,990 more rows
…
